__________              .__            ___________
\______   \ ____   ____ |__|_____   ___\__    ___/___   ____
 |       _// __ \_/ ___\|  \____ \_/ __ \|    | /  _ \ /    \
 |    |   \  ___/\  \___|  |  |_> >  ___/|    |(  <_> )   |  \
 |____|_  /\___  >\___  >__|   __/ \___  >____| \____/|___|  /
        \/     \/     \/   |__|        \/                  \/
${application.title} ${application.formatted-version} :: ${AnsiColor.GREEN} ${spring-boot.version} ${AnsiColor.DEFAULT}